<?xml version="1.0" encoding="UTF-8" standalone="no"?>
<!-- Created with Inkscape (http://www.inkscape.org/) -->

<svg
   xmlns:dc="http://purl.org/dc/elements/1.1/"
   xmlns:cc="http://creativecommons.org/ns#"
   xmlns:rdf="http://www.w3.org/1999/02/22-rdf-syntax-ns#"
   xmlns:svg="http://www.w3.org/2000/svg"
   xmlns="http://www.w3.org/2000/svg"
   xmlns:sodipodi="http://sodipodi.sourceforge.net/DTD/sodipodi-0.dtd"
   xmlns:inkscape="http://www.inkscape.org/namespaces/inkscape"
   width="744.09448819"
   height="1052.3622047"
   id="svg2"
   version="1.1"
   inkscape:version="0.92.2 (5c3e80d, 2017-08-06)"
   sodipodi:docname="OpenSourceStructure.svg"
   inkscape:export-filename="/home/phil/0_narchme/open_source/OpenSourceStructure.png"
   inkscape:export-xdpi="90"
   inkscape:export-ydpi="90">
  <defs
     id="defs4">
    <marker
       inkscape:stockid="Arrow1Mstart"
       orient="auto"
       refY="0.0"
       refX="0.0"
       id="Arrow1Mstart"
       style="overflow:visible">
      <path
         id="path3931"
         d="M 0.0,0.0 L 5.0,-5.0 L -12.5,0.0 L 5.0,5.0 L 0.0,0.0 z "
         style="fill-rule:evenodd;stroke:#000000;stroke-width:1.0pt"
         transform="scale(0.4) translate(10,0)" />
    </marker>
    <marker
       inkscape:stockid="Arrow1Lstart"
       orient="auto"
       refY="0.0"
       refX="0.0"
       id="Arrow1Lstart"
       style="overflow:visible">
      <path
         id="path3925"
         d="M 0.0,0.0 L 5.0,-5.0 L -12.5,0.0 L 5.0,5.0 L 0.0,0.0 z "
         style="fill-rule:evenodd;stroke:#000000;stroke-width:1.0pt"
         transform="scale(0.8) translate(12.5,0)" />
    </marker>
    <marker
       inkscape:stockid="Arrow1Mend"
       orient="auto"
       refY="0.0"
       refX="0.0"
       id="Arrow1Mend"
       style="overflow:visible;">
      <path
         id="path3934"
         d="M 0.0,0.0 L 5.0,-5.0 L -12.5,0.0 L 5.0,5.0 L 0.0,0.0 z "
         style="fill-rule:evenodd;stroke:#000000;stroke-width:1.0pt;"
         transform="scale(0.4) rotate(180) translate(10,0)" />
    </marker>
    <marker
       inkscape:stockid="Arrow1Mstart"
       orient="auto"
       refY="0"
       refX="0"
       id="Arrow1Mstart-4"
       style="overflow:visible">
      <path
         inkscape:connector-curvature="0"
         id="path3931-5"
         d="M 0,0 5,-5 -12.5,0 5,5 0,0 z"
         style="fill-rule:evenodd;stroke:#000000;stroke-width:1pt"
         transform="matrix(0.4,0,0,0.4,4,0)" />
    </marker>
    <marker
       inkscape:stockid="Arrow1Mend"
       orient="auto"
       refY="0"
       refX="0"
       id="Arrow1Mend-5"
       style="overflow:visible">
      <path
         inkscape:connector-curvature="0"
         id="path3934-3"
         d="M 0,0 5,-5 -12.5,0 5,5 0,0 z"
         style="fill-rule:evenodd;stroke:#000000;stroke-width:1pt"
         transform="matrix(-0.4,0,0,-0.4,-4,0)" />
    </marker>
    <marker
       inkscape:stockid="Arrow1Mstart"
       orient="auto"
       refY="0"
       refX="0"
       id="Arrow1Mstart-0"
       style="overflow:visible">
      <path
         inkscape:connector-curvature="0"
         id="path3931-8"
         d="M 0,0 5,-5 -12.5,0 5,5 0,0 z"
         style="fill-rule:evenodd;stroke:#000000;stroke-width:1pt"
         transform="matrix(0.4,0,0,0.4,4,0)" />
    </marker>
    <marker
       inkscape:stockid="Arrow1Mend"
       orient="auto"
       refY="0"
       refX="0"
       id="Arrow1Mend-8"
       style="overflow:visible">
      <path
         inkscape:connector-curvature="0"
         id="path3934-7"
         d="M 0,0 5,-5 -12.5,0 5,5 0,0 z"
         style="fill-rule:evenodd;stroke:#000000;stroke-width:1pt"
         transform="matrix(-0.4,0,0,-0.4,-4,0)" />
    </marker>
    <marker
       inkscape:stockid="Arrow1Mstart"
       orient="auto"
       refY="0"
       refX="0"
       id="Arrow1Mstart-3"
       style="overflow:visible">
      <path
         inkscape:connector-curvature="0"
         id="path3931-7"
         d="M 0,0 5,-5 -12.5,0 5,5 0,0 z"
         style="fill-rule:evenodd;stroke:#000000;stroke-width:1pt"
         transform="matrix(0.4,0,0,0.4,4,0)" />
    </marker>
    <marker
       inkscape:stockid="Arrow1Mend"
       orient="auto"
       refY="0"
       refX="0"
       id="Arrow1Mend-2"
       style="overflow:visible">
      <path
         inkscape:connector-curvature="0"
         id="path3934-0"
         d="M 0,0 5,-5 -12.5,0 5,5 0,0 z"
         style="fill-rule:evenodd;stroke:#000000;stroke-width:1pt"
         transform="matrix(-0.4,0,0,-0.4,-4,0)" />
    </marker>
    <marker
       inkscape:stockid="Arrow1Mstart"
       orient="auto"
       refY="0"
       refX="0"
       id="Arrow1Mstart-9"
       style="overflow:visible">
      <path
         inkscape:connector-curvature="0"
         id="path3931-54"
         d="M 0,0 5,-5 -12.5,0 5,5 0,0 z"
         style="fill-rule:evenodd;stroke:#000000;stroke-width:1pt"
         transform="matrix(0.4,0,0,0.4,4,0)" />
    </marker>
    <marker
       inkscape:stockid="Arrow1Mend"
       orient="auto"
       refY="0"
       refX="0"
       id="Arrow1Mend-84"
       style="overflow:visible">
      <path
         inkscape:connector-curvature="0"
         id="path3934-4"
         d="M 0,0 5,-5 -12.5,0 5,5 0,0 z"
         style="fill-rule:evenodd;stroke:#000000;stroke-width:1pt"
         transform="matrix(-0.4,0,0,-0.4,-4,0)" />
    </marker>
    <marker
       inkscape:stockid="Arrow1Mstart"
       orient="auto"
       refY="0"
       refX="0"
       id="Arrow1Mstart-1"
       style="overflow:visible">
      <path
         inkscape:connector-curvature="0"
         id="path3931-71"
         d="M 0,0 5,-5 -12.5,0 5,5 0,0 z"
         style="fill-rule:evenodd;stroke:#000000;stroke-width:1pt"
         transform="matrix(0.4,0,0,0.4,4,0)" />
    </marker>
    <marker
       inkscape:stockid="Arrow1Mend"
       orient="auto"
       refY="0"
       refX="0"
       id="Arrow1Mend-59"
       style="overflow:visible">
      <path
         inkscape:connector-curvature="0"
         id="path3934-73"
         d="M 0,0 5,-5 -12.5,0 5,5 0,0 z"
         style="fill-rule:evenodd;stroke:#000000;stroke-width:1pt"
         transform="matrix(-0.4,0,0,-0.4,-4,0)" />
    </marker>
    <marker
       inkscape:stockid="Arrow1Mstart"
       orient="auto"
       refY="0"
       refX="0"
       id="Arrow1Mstart-6"
       style="overflow:visible">
      <path
         inkscape:connector-curvature="0"
         id="path3931-9"
         d="M 0,0 5,-5 -12.5,0 5,5 0,0 z"
         style="fill-rule:evenodd;stroke:#000000;stroke-width:1pt"
         transform="matrix(0.4,0,0,0.4,4,0)" />
    </marker>
    <marker
       inkscape:stockid="Arrow1Mend"
       orient="auto"
       refY="0"
       refX="0"
       id="Arrow1Mend-3"
       style="overflow:visible">
      <path
         inkscape:connector-curvature="0"
         id="path3934-33"
         d="M 0,0 5,-5 -12.5,0 5,5 0,0 z"
         style="fill-rule:evenodd;stroke:#000000;stroke-width:1pt"
         transform="matrix(-0.4,0,0,-0.4,-4,0)" />
    </marker>
    <marker
       inkscape:stockid="Arrow1Mstart"
       orient="auto"
       refY="0"
       refX="0"
       id="Arrow1Mstart-41"
       style="overflow:visible">
      <path
         inkscape:connector-curvature="0"
         id="path3931-4"
         d="M 0,0 5,-5 -12.5,0 5,5 0,0 z"
         style="fill-rule:evenodd;stroke:#000000;stroke-width:1pt"
         transform="matrix(0.4,0,0,0.4,4,0)" />
    </marker>
    <marker
       inkscape:stockid="Arrow1Mend"
       orient="auto"
       refY="0"
       refX="0"
       id="Arrow1Mend-30"
       style="overflow:visible">
      <path
         inkscape:connector-curvature="0"
         id="path3934-9"
         d="M 0,0 5,-5 -12.5,0 5,5 0,0 z"
         style="fill-rule:evenodd;stroke:#000000;stroke-width:1pt"
         transform="matrix(-0.4,0,0,-0.4,-4,0)" />
    </marker>
    <marker
       inkscape:stockid="Arrow1Mstart"
       orient="auto"
       refY="0"
       refX="0"
       id="Arrow1Mstart-49"
       style="overflow:visible">
      <path
         inkscape:connector-curvature="0"
         id="path3931-94"
         d="M 0,0 5,-5 -12.5,0 5,5 0,0 z"
         style="fill-rule:evenodd;stroke:#000000;stroke-width:1pt"
         transform="matrix(0.4,0,0,0.4,4,0)" />
    </marker>
    <marker
       inkscape:stockid="Arrow1Mend"
       orient="auto"
       refY="0"
       refX="0"
       id="Arrow1Mend-55"
       style="overflow:visible">
      <path
         inkscape:connector-curvature="0"
         id="path3934-49"
         d="M 0,0 5,-5 -12.5,0 5,5 0,0 z"
         style="fill-rule:evenodd;stroke:#000000;stroke-width:1pt"
         transform="matrix(-0.4,0,0,-0.4,-4,0)" />
    </marker>
    <marker
       inkscape:stockid="Arrow1Mstart"
       orient="auto"
       refY="0"
       refX="0"
       id="Arrow1Mstart-92"
       style="overflow:visible">
      <path
         inkscape:connector-curvature="0"
         id="path3931-91"
         d="M 0,0 5,-5 -12.5,0 5,5 0,0 z"
         style="fill-rule:evenodd;stroke:#000000;stroke-width:1pt"
         transform="matrix(0.4,0,0,0.4,4,0)" />
    </marker>
    <marker
       inkscape:stockid="Arrow1Mend"
       orient="auto"
       refY="0"
       refX="0"
       id="Arrow1Mend-7"
       style="overflow:visible">
      <path
         inkscape:connector-curvature="0"
         id="path3934-08"
         d="M 0,0 5,-5 -12.5,0 5,5 0,0 z"
         style="fill-rule:evenodd;stroke:#000000;stroke-width:1pt"
         transform="matrix(-0.4,0,0,-0.4,-4,0)" />
    </marker>
  </defs>
  <sodipodi:namedview
     id="base"
     pagecolor="#ffffff"
     bordercolor="#666666"
     borderopacity="1.0"
     inkscape:pageopacity="0.0"
     inkscape:pageshadow="2"
     inkscape:zoom="0.7"
     inkscape:cx="355.71429"
     inkscape:cy="685.71428"
     inkscape:document-units="px"
     inkscape:current-layer="layer1"
     showgrid="false"
     inkscape:window-width="1440"
     inkscape:window-height="853"
     inkscape:window-x="0"
     inkscape:window-y="25"
     inkscape:window-maximized="1" />
  <metadata
     id="metadata7">
    <rdf:RDF>
      <cc:Work
         rdf:about="">
        <dc:format>image/svg+xml</dc:format>
        <dc:type
           rdf:resource="http://purl.org/dc/dcmitype/StillImage" />
        <dc:title />
      </cc:Work>
    </rdf:RDF>
  </metadata>
  <g
     inkscape:label="Layer 1"
     inkscape:groupmode="layer"
     id="layer1">
    <rect
       style="color:#000000;fill:#ffffff;fill-opacity:1;fill-rule:nonzero;stroke:#000000;stroke-width:5.91673183;stroke-linecap:butt;stroke-linejoin:miter;stroke-miterlimit:4;stroke-opacity:1;stroke-dasharray:none;stroke-dashoffset:0;marker:none;visibility:visible;display:inline;overflow:visible;enable-background:accumulate"
       id="rect2985"
       width="129.08327"
       height="463.36899"
       x="576.17261"
       y="29.963408" />
    <rect
       style="color:#000000;fill:#ffffff;fill-opacity:1;fill-rule:nonzero;stroke:#000000;stroke-width:5;stroke-linecap:butt;stroke-linejoin:miter;stroke-miterlimit:4;stroke-opacity:1;stroke-dasharray:none;stroke-dashoffset:0;marker:none;visibility:visible;display:inline;overflow:visible;enable-background:accumulate"
       id="rect2987"
       width="155.71428"
       height="185.71428"
       x="317.14288"
       y="28.076471" />
    <rect
       style="color:#000000;fill:#ffffff;fill-opacity:1;fill-rule:nonzero;stroke:#000000;stroke-width:5;stroke-linecap:butt;stroke-linejoin:miter;stroke-miterlimit:4;stroke-opacity:1;stroke-dasharray:none;stroke-dashoffset:0;marker:none;visibility:visible;display:inline;overflow:visible;enable-background:accumulate"
       id="rect2987-1"
       width="155.71428"
       height="185.71428"
       x="333.57144"
       y="43.79076" />
    <rect
       style="color:#000000;fill:#ffffff;fill-opacity:1;fill-rule:nonzero;stroke:#000000;stroke-width:5;stroke-linecap:butt;stroke-linejoin:miter;stroke-miterlimit:4;stroke-opacity:1;stroke-dasharray:none;stroke-dashoffset:0;marker:none;visibility:visible;display:inline;overflow:visible;enable-background:accumulate"
       id="rect2987-18"
       width="155.71428"
       height="185.71428"
       x="350.71429"
       y="60.933613" />
    <path
       sodipodi:type="arc"
       style="color:#000000;fill:#ffffff;fill-opacity:1;fill-rule:nonzero;stroke:#000000;stroke-width:5;stroke-linecap:butt;stroke-linejoin:miter;stroke-miterlimit:4;stroke-opacity:1;stroke-dasharray:none;stroke-dashoffset:0;marker:none;visibility:visible;display:inline;overflow:visible;enable-background:accumulate"
       id="path3014"
       sodipodi:cx="320.71429"
       sodipodi:cy="550.93359"
       sodipodi:rx="180.71428"
       sodipodi:ry="104.28571"
       d="m 501.42857,550.93359 a 180.71428,104.28571 0 1 1 -361.42855,0 180.71428,104.28571 0 1 1 361.42855,0 z"
       transform="matrix(0,0.85256413,-0.75136112,0,843.23581,73.932667)" />
    <path
       sodipodi:type="arc"
       style="color:#000000;fill:#ffffff;fill-opacity:1;fill-rule:nonzero;stroke:#000000;stroke-width:5;stroke-linecap:butt;stroke-linejoin:miter;stroke-miterlimit:4;stroke-opacity:1;stroke-dasharray:none;stroke-dashoffset:0;marker:none;visibility:visible;display:inline;overflow:visible;enable-background:accumulate"
       id="path3016"
       sodipodi:cx="181.42857"
       sodipodi:cy="296.64789"
       sodipodi:rx="100"
       sodipodi:ry="100"
       d="m 281.42857,296.64789 a 100,100 0 1 1 -199.999996,0 100,100 0 1 1 199.999996,0 z"
       transform="matrix(1.174216,0,0,1.174216,-48.036337,-56.680817)" />
    <path
       sodipodi:type="arc"
       style="color:#000000;fill:#ffffff;fill-opacity:1;fill-rule:nonzero;stroke:#000000;stroke-width:5;stroke-linecap:butt;stroke-linejoin:miter;stroke-miterlimit:4;stroke-opacity:1;stroke-dasharray:none;stroke-dashoffset:0;marker:none;visibility:visible;display:inline;overflow:visible;enable-background:accumulate"
       id="path3016-8"
       sodipodi:cx="181.42857"
       sodipodi:cy="296.64789"
       sodipodi:rx="100"
       sodipodi:ry="100"
       d="m 281.42857,296.64789 a 100,100 0 1 1 -199.999996,0 100,100 0 1 1 199.999996,0 z"
       transform="matrix(0.77700346,0,0,0.77700346,-30.256343,289.72289)" />
    <path
       sodipodi:type="arc"
       style="color:#000000;fill:#ffffff;fill-opacity:1;fill-rule:nonzero;stroke:#000000;stroke-width:5;stroke-linecap:butt;stroke-linejoin:miter;stroke-miterlimit:4;stroke-opacity:1;stroke-dasharray:none;stroke-dashoffset:0;marker:none;visibility:visible;display:inline;overflow:visible;enable-background:accumulate"
       id="path3016-8-8"
       sodipodi:cx="181.42857"
       sodipodi:cy="296.64789"
       sodipodi:rx="100"
       sodipodi:ry="100"
       d="m 281.42857,296.64789 a 100,100 0 1 1 -199.999996,0 100,100 0 1 1 199.999996,0 z"
       transform="matrix(0.77700346,0,0,0.77700346,-32.399201,486.15146)" />
    <path
       sodipodi:type="arc"
       style="color:#000000;fill:#ffffff;fill-opacity:1;fill-rule:nonzero;stroke:#000000;stroke-width:5;stroke-linecap:butt;stroke-linejoin:miter;stroke-miterlimit:4;stroke-opacity:1;stroke-dasharray:none;stroke-dashoffset:0;marker:none;visibility:visible;display:inline;overflow:visible;enable-background:accumulate"
       id="path3016-8-8-7"
       sodipodi:cx="181.42857"
       sodipodi:cy="296.64789"
       sodipodi:rx="100"
       sodipodi:ry="100"
       d="m 281.42857,296.64789 a 100,100 0 1 1 -199.999996,0 100,100 0 1 1 199.999996,0 z"
       transform="matrix(0.77700346,0,0,0.77700346,31.886513,669.00861)" />
    <path
       sodipodi:type="arc"
       style="color:#000000;fill:#ffffff;fill-opacity:1;fill-rule:nonzero;stroke:#000000;stroke-width:5;stroke-linecap:butt;stroke-linejoin:miter;stroke-miterlimit:4;stroke-opacity:1;stroke-dasharray:none;stroke-dashoffset:0;marker:none;visibility:visible;display:inline;overflow:visible;enable-background:accumulate"
       id="path3016-8-8-5"
       sodipodi:cx="181.42857"
       sodipodi:cy="296.64789"
       sodipodi:rx="100"
       sodipodi:ry="100"
       d="m 281.42857,296.64789 a 100,100 0 1 1 -199.999996,0 100,100 0 1 1 199.999996,0 z"
       transform="matrix(0.77700346,0,0,0.77700346,231.88651,679.0086)" />
    <path
       sodipodi:type="arc"
       style="color:#000000;fill:#ffffff;fill-opacity:1;fill-rule:nonzero;stroke:#000000;stroke-width:5;stroke-linecap:butt;stroke-linejoin:miter;stroke-miterlimit:4;stroke-opacity:1;stroke-dasharray:none;stroke-dashoffset:0;marker:none;visibility:visible;display:inline;overflow:visible;enable-background:accumulate"
       id="path3016-8-8-6"
       sodipodi:cx="181.42857"
       sodipodi:cy="296.64789"
       sodipodi:rx="100"
       sodipodi:ry="100"
       d="m 281.42857,296.64789 a 100,100 0 1 1 -199.999996,0 100,100 0 1 1 199.999996,0 z"
       transform="matrix(0.77700346,0,0,0.77700346,426.17223,604.72288)" />
    <path
       sodipodi:type="arc"
       style="color:#000000;fill:#ffffff;fill-opacity:1;fill-rule:nonzero;stroke:#000000;stroke-width:5;stroke-linecap:butt;stroke-linejoin:miter;stroke-miterlimit:4;stroke-opacity:1;stroke-dasharray:none;stroke-dashoffset:0;marker:none;visibility:visible;display:inline;overflow:visible;enable-background:accumulate"
       id="path3016-8-8-59"
       sodipodi:cx="181.42857"
       sodipodi:cy="296.64789"
       sodipodi:rx="100"
       sodipodi:ry="100"
       d="m 281.42857,296.64789 a 100,100 0 1 1 -199.999996,0 100,100 0 1 1 199.999996,0 z"
       transform="matrix(0.77700346,0,0,0.77700346,491.88651,410.43717)" />
    <text
       xml:space="preserve"
       style="font-style:normal;font-variant:normal;font-weight:normal;font-stretch:normal;line-height:0%;font-family:'DejaVu Sans';-inkscape-font-specification:'DejaVu Sans';text-align:start;letter-spacing:0px;word-spacing:0px;writing-mode:lr-tb;text-anchor:start;fill:#000000;fill-opacity:1;stroke:none"
       x="591.42859"
       y="220.93361"
       id="text3075"><tspan
         sodipodi:role="line"
         id="tspan3077"
         x="591.42859"
         y="220.93361"
         style="font-style:normal;font-variant:normal;font-weight:normal;font-stretch:normal;font-size:40px;line-height:1;font-family:'Liberation Sans';-inkscape-font-specification:'Liberation Sans'">Web</tspan><tspan
         sodipodi:role="line"
         x="591.42859"
         y="260.93359"
         id="tspan3081"
         style="font-style:normal;font-variant:normal;font-weight:normal;font-stretch:normal;font-size:40px;line-height:1;font-family:'Liberation Sans';-inkscape-font-specification:'Liberation Sans'">Front</tspan><tspan
         sodipodi:role="line"
         x="591.42859"
         y="300.93359"
         id="tspan3085"
         style="font-style:normal;font-variant:normal;font-weight:normal;font-stretch:normal;font-size:40px;line-height:1;font-family:'Liberation Sans';-inkscape-font-specification:'Liberation Sans'">End</tspan></text>
    <text
       xml:space="preserve"
       style="font-style:normal;font-variant:normal;font-weight:normal;font-stretch:normal;line-height:0%;font-family:'DejaVu Sans';-inkscape-font-specification:'DejaVu Sans';text-align:start;letter-spacing:0px;word-spacing:0px;writing-mode:lr-tb;text-anchor:start;fill:#000000;fill-opacity:1;stroke:none"
       x="371.42856"
       y="99.505051"
       id="text3087"><tspan
         sodipodi:role="line"
         id="tspan3089"
         x="371.42856"
         y="99.505051"
         style="font-size:24px;line-height:1">Chatbot</tspan><tspan
         sodipodi:role="line"
         x="371.42856"
         y="123.50505"
         id="tspan3091"
         style="font-size:24px;line-height:1">Server(s)</tspan><tspan
         sodipodi:role="line"
         x="371.42856"
         y="147.50505"
         style="font-size:24px;line-height:1"
         id="tspan7822">- Fast</tspan><tspan
         sodipodi:role="line"
         x="371.42856"
         y="171.50505"
         style="font-size:24px;line-height:1"
         id="tspan7824">Parsing</tspan></text>
    <text
       xml:space="preserve"
       style="font-style:normal;font-variant:normal;font-weight:normal;font-stretch:normal;line-height:0%;font-family:'DejaVu Sans';-inkscape-font-specification:'DejaVu Sans';text-align:start;letter-spacing:0px;word-spacing:0px;writing-mode:lr-tb;text-anchor:start;fill:#000000;fill-opacity:1;stroke:none"
       x="370"
       y="308.07645"
       id="text3093"><tspan
         sodipodi:role="line"
         id="tspan3095"
         x="370"
         y="308.07645"
         style="font-size:24px;line-height:1">Executive</tspan><tspan
         sodipodi:role="line"
         x="370"
         y="332.07645"
         style="font-size:24px;line-height:1"
         id="tspan7818">Function</tspan><tspan
         sodipodi:role="line"
         x="370"
         y="356.07645"
         id="tspan3099"
         style="font-size:24px;line-height:1">System /</tspan><tspan
         sodipodi:role="line"
         x="370"
         y="380.07645"
         style="font-size:24px;line-height:1"
         id="tspan7820">Supervisor</tspan><tspan
         sodipodi:role="line"
         x="370"
         y="404.07645"
         id="tspan3097"
         style="font-size:24px;line-height:1">(ExFuS)</tspan></text>
    <text
       xml:space="preserve"
       style="font-style:normal;font-variant:normal;font-weight:normal;font-stretch:normal;line-height:0%;font-family:'DejaVu Sans';-inkscape-font-specification:'DejaVu Sans';text-align:start;letter-spacing:0px;word-spacing:0px;writing-mode:lr-tb;text-anchor:start;fill:#000000;fill-opacity:1;stroke:none"
       x="54.285709"
       y="502.36218"
       id="text3101"><tspan
         sodipodi:role="line"
         id="tspan3103"
         x="54.285709"
         y="502.36218"
         style="font-size:16px;line-height:1">Semantic</tspan><tspan
         sodipodi:role="line"
         x="54.285709"
         y="518.36218"
         id="tspan3105"
         style="font-size:16px;line-height:1">Parsing of</tspan><tspan
         sodipodi:role="line"
         x="54.285709"
         y="534.36218"
         id="tspan7826"
         style="font-size:16px;line-height:1">Complex Bot</tspan><tspan
         sodipodi:role="line"
         x="54.285709"
         y="550.36218"
         id="tspan3107"
         style="font-size:16px;line-height:1">Conversations</tspan></text>
    <text
       xml:space="preserve"
       style="font-style:normal;font-variant:normal;font-weight:normal;font-stretch:normal;line-height:0%;font-family:'DejaVu Sans';-inkscape-font-specification:'DejaVu Sans';text-align:start;letter-spacing:0px;word-spacing:0px;writing-mode:lr-tb;text-anchor:start;fill:#000000;fill-opacity:1;stroke:none"
       x="47.14286"
       y="706.64789"
       id="text3109"><tspan
         sodipodi:role="line"
         id="tspan3111"
         x="47.14286"
         y="706.64789"
         style="font-size:16px;line-height:1">Semantic</tspan><tspan
         sodipodi:role="line"
         x="47.14286"
         y="722.64789"
         id="tspan3113"
         style="font-size:16px;line-height:1">Parsing of</tspan><tspan
         sodipodi:role="line"
         x="47.14286"
         y="738.64789"
         id="tspan3115"
         style="font-size:16px;line-height:1">Uploaded Texts</tspan></text>
    <text
       xml:space="preserve"
       style="font-style:normal;font-variant:normal;font-weight:normal;font-stretch:normal;line-height:0%;font-family:'DejaVu Sans';-inkscape-font-specification:'DejaVu Sans';text-align:start;letter-spacing:0px;word-spacing:0px;writing-mode:lr-tb;text-anchor:start;fill:#000000;fill-opacity:1;stroke:none"
       x="121.42857"
       y="896.64789"
       id="text3117"><tspan
         sodipodi:role="line"
         id="tspan3119"
         x="121.42857"
         y="896.64789"
         style="font-size:16px;line-height:1">Voice to Text</tspan><tspan
         sodipodi:role="line"
         x="121.42857"
         y="912.64789"
         id="tspan3121"
         style="font-size:16px;line-height:1">Conversion</tspan></text>
    <text
       xml:space="preserve"
       style="font-style:normal;font-variant:normal;font-weight:normal;font-stretch:normal;line-height:0%;font-family:'DejaVu Sans';-inkscape-font-specification:'DejaVu Sans';text-align:start;letter-spacing:0px;word-spacing:0px;writing-mode:lr-tb;text-anchor:start;fill:#000000;fill-opacity:1;stroke:none"
       x="317.14285"
       y="898.07648"
       id="text3123"><tspan
         sodipodi:role="line"
         id="tspan3125"
         x="317.14285"
         y="898.07648"
         style="font-size:16px;line-height:1">Mood, Body</tspan><tspan
         sodipodi:role="line"
         x="317.14285"
         y="914.07648"
         id="tspan3127"
         style="font-size:16px;line-height:1">Language etc</tspan><tspan
         sodipodi:role="line"
         x="317.14285"
         y="930.07648"
         id="tspan3129"
         style="font-size:16px;line-height:1">Recognition</tspan></text>
    <text
       xml:space="preserve"
       style="font-style:normal;font-variant:normal;font-weight:normal;font-stretch:normal;line-height:0%;font-family:'DejaVu Sans';-inkscape-font-specification:'DejaVu Sans';text-align:start;letter-spacing:0px;word-spacing:0px;writing-mode:lr-tb;text-anchor:start;fill:#000000;fill-opacity:1;stroke:none"
       x="517.14288"
       y="832.36218"
       id="text3131"><tspan
         sodipodi:role="line"
         id="tspan3133"
         x="517.14288"
         y="832.36218"
         style="font-size:16px;line-height:1">Image</tspan><tspan
         sodipodi:role="line"
         x="517.14288"
         y="848.36218"
         id="tspan3135"
         style="font-size:16px;line-height:1">Recognition</tspan></text>
    <text
       xml:space="preserve"
       style="font-style:normal;font-variant:normal;font-weight:normal;font-stretch:normal;line-height:0%;font-family:'DejaVu Sans';-inkscape-font-specification:'DejaVu Sans';text-align:start;letter-spacing:0px;word-spacing:0px;writing-mode:lr-tb;text-anchor:start;fill:#000000;fill-opacity:1;stroke:none"
       x="592.85718"
       y="628.07642"
       id="text3137"><tspan
         sodipodi:role="line"
         id="tspan3139"
         x="592.85718"
         y="628.07642"
         style="font-size:16px;line-height:1">Google’s</tspan><tspan
         sodipodi:role="line"
         x="592.85718"
         y="644.07642"
         id="tspan3141"
         style="font-size:16px;line-height:1">Semantic</tspan><tspan
         sodipodi:role="line"
         x="592.85718"
         y="660.07642"
         id="tspan3143"
         style="font-size:16px;line-height:1">Search?</tspan></text>
    <text
       xml:space="preserve"
       style="font-style:normal;font-variant:normal;font-weight:normal;font-stretch:normal;line-height:0%;font-family:'DejaVu Sans';-inkscape-font-specification:'DejaVu Sans';text-align:start;letter-spacing:0px;word-spacing:0px;writing-mode:lr-tb;text-anchor:start;fill:#000000;fill-opacity:1;stroke:none"
       x="68.571426"
       y="286.64792"
       id="text3145"><tspan
         sodipodi:role="line"
         id="tspan3147"
         x="68.571426"
         y="286.64792"
         style="font-size:28px;line-height:1">Data Storage</tspan><tspan
         sodipodi:role="line"
         x="68.571426"
         y="314.64792"
         id="tspan3149"
         style="font-size:28px;line-height:1">eg Cassandra</tspan></text>
    <path
       style="fill:none;stroke:#000000;stroke-width:3.53320336;stroke-linecap:butt;stroke-linejoin:miter;stroke-miterlimit:4;stroke-opacity:1;stroke-dasharray:none;marker-start:url(#Arrow1Mstart);marker-end:url(#Arrow1Mend)"
       d="m 565.61283,192.36219 c -52.65424,1e-5 -52.65424,1e-5 -52.65424,1e-5"
       id="path3151"
       inkscape:connector-curvature="0" />
    <path
       style="fill:none;stroke:#000000;stroke-width:5;stroke-linecap:butt;stroke-linejoin:miter;stroke-miterlimit:4;stroke-opacity:1;stroke-dasharray:5,5;stroke-dashoffset:0;marker-start:none;marker-end:none"
       d="m 249.85628,192.0998 c 54.57317,-32.33238 54.57317,-32.33238 54.57317,-32.33238"
       id="path3151-0"
       inkscape:connector-curvature="0" />
    <path
       style="fill:none;stroke:#000000;stroke-width:5;stroke-linecap:butt;stroke-linejoin:miter;stroke-miterlimit:4;stroke-opacity:1;stroke-dasharray:5,5;stroke-dashoffset:0;marker-start:none;marker-end:none"
       d="m 287.84218,328.49392 c 57.17279,0.59363 57.17279,0.59363 57.17279,0.59363"
       id="path3151-0-7"
       inkscape:connector-curvature="0" />
    <path
       style="fill:none;stroke:#000000;stroke-width:5.50813866;stroke-linecap:butt;stroke-linejoin:miter;stroke-miterlimit:4;stroke-opacity:1;stroke-dasharray:5.50813859, 5.50813859;stroke-dashoffset:0;marker-start:none;marker-end:none"
       d="M 177.30771,662.68376 C 364.12085,460.61203 364.12085,460.61203 364.12085,460.61203"
       id="path3151-0-6"
       inkscape:connector-curvature="0" />
    <path
       style="fill:none;stroke:#000000;stroke-width:5;stroke-linecap:butt;stroke-linejoin:miter;stroke-miterlimit:4;stroke-opacity:1;stroke-dasharray:5,5;stroke-dashoffset:0;marker-start:none;marker-end:none"
       d="M 204.04508,488.07982 C 344.52636,410.93023 344.52636,410.93023 344.52636,410.93023"
       id="path3151-0-3"
       inkscape:connector-curvature="0" />
    <path
       style="fill:none;stroke:#000000;stroke-width:5.20784044;stroke-linecap:butt;stroke-linejoin:miter;stroke-miterlimit:4;stroke-opacity:1;stroke-dasharray:5.20784054, 5.20784054;stroke-dashoffset:0;marker-start:none;marker-end:none"
       d="M 220.20666,818.29328 C 389.79333,499.28822 389.79333,499.28822 389.79333,499.28822"
       id="path3151-0-8"
       inkscape:connector-curvature="0" />
    <path
       style="fill:none;stroke:#000000;stroke-width:5.52379036;stroke-linecap:butt;stroke-linejoin:miter;stroke-miterlimit:4;stroke-opacity:1;stroke-dasharray:5.52379059, 5.52379059;stroke-dashoffset:0;marker-start:none;marker-end:none"
       d="M 388.62855,820.03027 C 419.94287,516.12269 419.94287,516.12269 419.94287,516.12269"
       id="path3151-0-8-6"
       inkscape:connector-curvature="0" />
    <path
       style="fill:none;stroke:#000000;stroke-width:5;stroke-linecap:butt;stroke-linejoin:miter;stroke-miterlimit:4;stroke-opacity:1;stroke-dasharray:5,5;stroke-dashoffset:0;marker-start:none;marker-end:none"
       d="M 538.25665,747.6975 C 461.74337,504.16973 461.74337,504.16973 461.74337,504.16973"
       id="path3151-0-8-2"
       inkscape:connector-curvature="0" />
    <path
       style="fill:none;stroke:#000000;stroke-width:5;stroke-linecap:butt;stroke-linejoin:miter;stroke-miterlimit:4;stroke-opacity:1;stroke-dasharray:5,5;stroke-dashoffset:0;marker-start:none;marker-end:none"
       d="M 572.46834,575.18642 C 484.6745,473.82365 484.6745,473.82365 484.6745,473.82365"
       id="path3151-0-6-3"
       inkscape:connector-curvature="0" />
    <text
       xml:space="preserve"
       style="font-style:normal;font-variant:normal;font-weight:normal;font-stretch:normal;line-height:0%;font-family:'DejaVu Sans';-inkscape-font-specification:'DejaVu Sans';text-align:start;letter-spacing:0px;word-spacing:0px;writing-mode:lr-tb;text-anchor:start;fill:#000000;fill-opacity:1;stroke:none"
       x="32.857143"
       y="53.790752"
       id="text7622"><tspan
         sodipodi:role="line"
         x="32.857143"
         y="53.790752"
         id="tspan7626"
         style="font-size:32px;line-height:1">Proposed</tspan><tspan
         sodipodi:role="line"
         x="32.857143"
         y="85.790756"
         id="tspan7632"
         style="font-size:32px;line-height:1">Open Source</tspan><tspan
         sodipodi:role="line"
         x="32.857143"
         y="117.79076"
         id="tspan7630"
         style="font-size:32px;line-height:1">= Ellipses</tspan></text>
  </g>
</svg>
